First Draft of Measure Cleaning
…
Code

new_col_cesd <-
  composite_total_avg_fun(cesd_fake_new,
                          id = 'rowid',
                          reverse = c('c4', 'c8', 'c12', 'c16'),
                          n_items = 20) %>%
  rename(cesd_total = sum_values,
         cesd_avg = mean_values)

prop_fun_plot(new_col_cesd,
              x = cesd_total)

[[1]]
# A tibble: 25 x 4
   cesd_total     n    prop percentage
        <dbl> <int>   <dbl> <chr>     
 1         17     1 0.00833 1%        
 2         18     1 0.00833 1%        
 3         20     2 0.0167  2%        
 4         21     2 0.0167  2%        
 5         22     2 0.0167  2%        
 6         23     2 0.0167  2%        
 7         24     4 0.0333  3%        
 8         25     3 0.025   2%        
 9         26    14 0.117   12%       
10         27     4 0.0333  3%        
# ... with 15 more rows
# i Use `print(n = ...)` to see more rows
…
Code

new_col_bsi <-
  composite_total_avg_fun(bsi_fake_new,
                          id = 'rowid',
                          n_items = 19) %>%
  rename(bsi_total = sum_values,
         bsi_avg = mean_values)

prop_fun_plot(new_col_bsi,
              x = bsi_total)

[[1]]
# A tibble: 29 x 4
   bsi_total     n    prop percentage
       <dbl> <int>   <dbl> <chr>     
 1        24     1 0.00833 1%        
 2        25     1 0.00833 1%        
 3        26     2 0.0167  2%        
 4        27     2 0.0167  2%        
 5        28     1 0.00833 1%        
 6        29     2 0.0167  2%        
 7        30     1 0.00833 1%        
 8        31     6 0.05    5%        
 9        32    12 0.1     10%       
10        33     3 0.025   2%        
# ... with 19 more rows
# i Use `print(n = ...)` to see more rows
…
